<svg xmlns="http://www.w3.org/2000/svg" xmlns:xlink="http://www.w3.org/1999/xlink" width="52" height="52" viewBox="0 0 52 52">
  <defs>
    <path id="thumb-play-btn-b" d="M32.5921147,27.3547875 L21.5189781,34.0777633 C21.046892,34.364387 20.4318362,34.21404 20.1452125,33.7419539 C20.0502282,33.5855092 20,33.4059975 20,33.2229758 L20,19.7770242 C20,19.2247395 20.4477153,18.7770242 21,18.7770242 C21.1830217,18.7770242 21.3625335,18.8272525 21.5189781,18.9222367 L32.5921147,25.6452125 C33.0642008,25.9318362 33.2145478,26.546892 32.9279241,27.0189781 C32.8445768,27.1562559 32.7293924,27.2714403 32.5921147,27.3547875 Z"/>
    <filter id="thumb-play-btn-a" width="200%" height="182.4%" x="-50%" y="-29.4%" filterUnits="objectBoundingBox">
      <feOffset dy="2" in="SourceAlpha" result="shadowOffsetOuter1"/>
      <feGaussianBlur in="shadowOffsetOuter1" result="shadowBlurOuter1" stdDeviation="2"/>
      <feColorMatrix in="shadowBlurOuter1" values="0 0 0 0 0   0 0 0 0 0   0 0 0 0 0  0 0 0 0.5 0"/>
    </filter>
  </defs>
  <g fill="none" fill-rule="evenodd">
    <use fill="#000" filter="url(#thumb-play-btn-a)" xlink:href="#thumb-play-btn-b"/>
    <use fill="#FFF" xlink:href="#thumb-play-btn-b"/>
  </g>
</svg>
